{
  "code": 0, 
  "success": true, 
  "resubmitToken": null, 
  "content": {
    "hasNextPage": true, 
    "pageSize": 15, 
    "start": 0, 
    "currentPageNo": 1, 
    "pageNo": 1, 
    "totalCount": 450, 
    "result": [
      {
        "orderBy": 150, 
        "leaderName": "\u90b1\u65e5\u9e3f", 
        "calcScore": false, 
        "companySize": "\u5c11\u4e8e15\u4eba", 
        "countAdjusted": false, 
        "workYear": "1-3\u5e74", 
        "education": "\u5927\u4e13", 
        "financeStage": "\u521d\u521b\u578b(\u672a\u878d\u8d44)", 
        "city": "\u53a6\u95e8", 
        "companyLogo": "image1/M00/3E/61/CgYXBlW8LaOAOCe0AABobZS4EJM176.jpg?cc=0.7600553992670029", 
        "createTimeSort": 1438398661000, 
        "companyId": 86600, 
        "industryField": "\u79fb\u52a8\u4e92\u8054\u7f51", 
        "companyLabelList": [
          "\u80a1\u7968\u671f\u6743", 
          "\u5e26\u85aa\u5e74\u5047", 
          "\u5c97\u4f4d\u664b\u5347", 
          "\u6241\u5e73\u7ba1\u7406"
        ], 
        "score": 0, 
        "adWord": 0, 
        "formatCreateTime": "11:11\u53d1\u5e03", 
        "showOrder": 0, 
        "salary": "5k-8k", 
        "positionName": "web\u524d\u7aef", 
        "companyName": "\u6613\u4f01\u88c5", 
        "jobNature": "\u5168\u804c", 
        "positonTypesMap": null, 
        "totalCount": 273353, 
        "positionFirstType": "\u6280\u672f", 
        "relScore": 0, 
        "createTime": "2015-08-01 11:11:01.0", 
        "positionId": 942654, 
        "randomScore": 0, 
        "companyShortName": "\u798f\u5dde\u51a0\u9e3f\u4e91\u5546\u4f20\u5a92\u6709\u9650\u516c\u53f8", 
        "searchScore": "NaN", 
        "haveDeliver": false, 
        "positionType": "\u524d\u7aef\u5f00\u53d1", 
        "positionAdvantage": "\u4e94\u9669\uff0c\u5347\u804c\u7a7a\u95f4\u5927\uff0c\u52a0\u804c\u6743", 
        "adjustScore": 0
      }, 
      {
        "orderBy": 225, 
        "leaderName": "\u5f20\u7ffc", 
        "calcScore": false, 
        "companySize": "50-150\u4eba", 
        "countAdjusted": false, 
        "workYear": "\u4e0d\u9650", 
        "education": "\u5927\u4e13", 
        "financeStage": "\u6210\u957f\u578b(A\u8f6e)", 
        "city": "\u4e0a\u6d77", 
        "companyLogo": "image1/M00/3C/F5/CgYXBlW3D7qAb15IAABJ0sCHEaw254.jpg", 
        "createTimeSort": 1438398636000, 
        "companyId": 39244, 
        "industryField": "\u79fb\u52a8\u4e92\u8054\u7f51 \u00b7 \u6559\u80b2", 
        "companyLabelList": [
          "\u6280\u80fd\u57f9\u8bad", 
          "\u8282\u65e5\u793c\u7269", 
          "\u4e13\u9879\u5956\u91d1", 
          "\u7ee9\u6548\u5956\u91d1"
        ], 
        "score": 0, 
        "adWord": 0, 
        "formatCreateTime": "11:10\u53d1\u5e03", 
        "showOrder": 0, 
        "salary": "6k-10k", 
        "positionName": "\u5e02\u573a\u63a8\u5e7f", 
        "companyName": "\u638c\u95e81\u5bf91\u5728\u7ebf\u6559\u80b2", 
        "jobNature": "\u5168\u804c", 
        "positonTypesMap": null, 
        "totalCount": 273353, 
        "positionFirstType": "\u5e02\u573a\u4e0e\u9500\u552e", 
        "relScore": 0, 
        "createTime": "2015-08-01 11:10:36.0", 
        "positionId": 942653, 
        "randomScore": 0, 
        "companyShortName": "\u6df1\u5733\u638c\u95e8\u4eba\u6559\u80b2\u54a8\u8be2\u6709\u9650\u516c\u53f8", 
        "searchScore": "NaN", 
        "haveDeliver": false, 
        "positionType": "\u5e02\u573a/\u8425\u9500", 
        "positionAdvantage": "\u56e2\u961f\u6c1b\u56f4\u5e74\u8f7b\u6709\u6d3b\u529b~ \u771f\u8bda\u671f\u5f85\u60a8\u7684\u52a0\u5165~", 
        "adjustScore": 0
      }, 
      {
        "orderBy": 240, 
        "leaderName": "\u674e\u5065", 
        "calcScore": false, 
        "companySize": "150-500\u4eba", 
        "countAdjusted": false, 
        "workYear": "3-5\u5e74", 
        "education": "\u7855\u58eb", 
        "financeStage": "\u6210\u957f\u578b(B\u8f6e)", 
        "city": "\u5317\u4eac", 
        "companyLogo": "image1/M00/00/21/Cgo8PFTUWHGAUTAcAABoeBHiSGQ931.jpg", 
        "createTimeSort": 1438398577000, 
        "companyId": 17751, 
        "industryField": "O2O", 
        "companyLabelList": [
          "\u5e74\u5e95\u53cc\u85aa", 
          "\u80a1\u7968\u671f\u6743", 
          "\u5c97\u4f4d\u664b\u5347", 
          "\u6241\u5e73\u7ba1\u7406"
        ], 
        "score": 0, 
        "adWord": 0, 
        "formatCreateTime": "11:09\u53d1\u5e03", 
        "showOrder": 0, 
        "salary": "25k-50k", 
        "positionName": "\u6570\u636e\u6316\u6398", 
        "companyName": "\u4eba\u4eba\u8f66", 
        "jobNature": "\u5168\u804c", 
        "positonTypesMap": null, 
        "totalCount": 273353, 
        "positionFirstType": "\u6280\u672f", 
        "relScore": 0, 
        "createTime": "2015-08-01 11:09:37.0", 
        "positionId": 901109, 
        "randomScore": 0, 
        "companyShortName": "\u5317\u4eac\u5584\u4e49\u5584\u7f8e\u7f51\u7edc\u6280\u672f\u6709\u9650\u516c\u53f8", 
        "searchScore": "NaN", 
        "haveDeliver": false, 
        "positionType": "\u540e\u7aef\u5f00\u53d1", 
        "positionAdvantage": "\u4e94\u9669\u4e00\u91d1\uff0c\u4f18\u79c0\u56e2\u961f,\u706b\u901f\u53d1\u5c55\uff0c\u4f18\u539a\u5f85\u9047", 
        "adjustScore": 0
      }, 
      {
        "orderBy": 175, 
        "leaderName": "\u6682\u6ca1\u6709\u586b\u5199", 
        "calcScore": false, 
        "companySize": "500-2000\u4eba", 
        "countAdjusted": false, 
        "workYear": "\u4e0d\u9650", 
        "education": "\u5927\u4e13", 
        "financeStage": "\u6210\u957f\u578b(A\u8f6e)", 
        "city": "\u6df1\u5733", 
        "companyLogo": "image1/M00/36/60/Cgo8PFWeLdaASC7qAAIVTqdQn24303.png?cc=0.3135748526547104", 
        "createTimeSort": 1438398489000, 
        "companyId": 81939, 
        "industryField": "\u79fb\u52a8\u4e92\u8054\u7f51", 
        "companyLabelList": [
          "\u8282\u65e5\u793c\u7269", 
          "\u5e74\u5e95\u53cc\u85aa", 
          "\u5e26\u85aa\u5e74\u5047", 
          "\u7ee9\u6548\u5956\u91d1"
        ], 
        "score": 0, 
        "adWord": 0, 
        "formatCreateTime": "11:08\u53d1\u5e03", 
        "showOrder": 0, 
        "salary": "3k-5k", 
        "positionName": "\u884c\u653f\u52a9\u7406", 
        "companyName": "\u4e07\u4fee", 
        "jobNature": "\u5168\u804c", 
        "positonTypesMap": null, 
        "totalCount": 273353, 
        "positionFirstType": "\u804c\u80fd", 
        "relScore": 0, 
        "createTime": "2015-08-01 11:08:09.0", 
        "positionId": 942652, 
        "randomScore": 0, 
        "companyShortName": "\u6df1\u5733\u5e02\u4e07\u4fee\u6280\u672f\u670d\u52a1\u6709\u9650\u516c\u53f8", 
        "searchScore": "NaN", 
        "haveDeliver": false, 
        "positionType": "\u884c\u653f", 
        "positionAdvantage": "\u53d1\u5c55\u524d\u666f\u597d", 
        "adjustScore": 0
      }, 
      {
        "orderBy": 240, 
        "leaderName": "\u674e\u5065", 
        "calcScore": false, 
        "companySize": "150-500\u4eba", 
        "countAdjusted": false, 
        "workYear": "\u5e94\u5c4a\u6bd5\u4e1a\u751f", 
        "education": "\u672c\u79d1", 
        "financeStage": "\u6210\u957f\u578b(B\u8f6e)", 
        "city": "\u5317\u4eac", 
        "companyLogo": "image1/M00/00/21/Cgo8PFTUWHGAUTAcAABoeBHiSGQ931.jpg", 
        "createTimeSort": 1438398469000, 
        "companyId": 17751, 
        "industryField": "O2O", 
        "companyLabelList": [
          "\u5e74\u5e95\u53cc\u85aa", 
          "\u80a1\u7968\u671f\u6743", 
          "\u5c97\u4f4d\u664b\u5347", 
          "\u6241\u5e73\u7ba1\u7406"
        ], 
        "score": 0, 
        "adWord": 0, 
        "formatCreateTime": "11:07\u53d1\u5e03", 
        "showOrder": 0, 
        "salary": "13k-25k", 
        "positionName": "PHP", 
        "companyName": "\u4eba\u4eba\u8f66", 
        "jobNature": "\u5168\u804c", 
        "positonTypesMap": null, 
        "totalCount": 273353, 
        "positionFirstType": "\u6280\u672f", 
        "relScore": 0, 
        "createTime": "2015-08-01 11:07:49.0", 
        "positionId": 939575, 
        "randomScore": 0, 
        "companyShortName": "\u5317\u4eac\u5584\u4e49\u5584\u7f8e\u7f51\u7edc\u6280\u672f\u6709\u9650\u516c\u53f8", 
        "searchScore": "NaN", 
        "haveDeliver": false, 
        "positionType": "\u540e\u7aef\u5f00\u53d1", 
        "positionAdvantage": "\u5f39\u6027\u5de5\u4f5c \u53d1\u5c55\u8fc5\u901f C2C\u6a21\u5f0f", 
        "adjustScore": 0
      }, 
      {
        "orderBy": 215, 
        "leaderName": "\u5f20\u5347", 
        "calcScore": false, 
        "companySize": "\u5c11\u4e8e15\u4eba", 
        "countAdjusted": false, 
        "workYear": "1-3\u5e74", 
        "education": "\u5b66\u5386\u4e0d\u9650", 
        "financeStage": "\u521d\u521b\u578b(\u5929\u4f7f\u8f6e)", 
        "city": "\u6df1\u5733", 
        "companyLogo": "image1/M00/1F/58/Cgo8PFUzInSAY648AABCp_QNH3M066.png", 
        "createTimeSort": 1438398468000, 
        "companyId": 31795, 
        "industryField": "\u79fb\u52a8\u4e92\u8054\u7f51 \u00b7 \u793e\u4ea4\u7f51\u7edc", 
        "companyLabelList": [
          "\u4e13\u9879\u5956\u91d1", 
          "\u80a1\u7968\u671f\u6743", 
          "\u5e26\u85aa\u5e74\u5047", 
          "\u5e74\u5ea6\u65c5\u6e38"
        ], 
        "score": 0, 
        "adWord": 0, 
        "formatCreateTime": "11:07\u53d1\u5e03", 
        "showOrder": 0, 
        "salary": "8k-16k", 
        "positionName": "UI\u8bbe\u8ba1\u5e08", 
        "companyName": "\u82b1\u751f\u5feb\u8dd1", 
        "jobNature": "\u5168\u804c", 
        "positonTypesMap": null, 
        "totalCount": 273353, 
        "positionFirstType": "\u8bbe\u8ba1", 
        "relScore": 0, 
        "createTime": "2015-08-01 11:07:48.0", 
        "positionId": 942651, 
        "randomScore": 0, 
        "companyShortName": "\u6df1\u5733\u82b1\u751f\u5feb\u8dd1\u79d1\u6280\u6709\u9650\u516c\u53f8", 
        "searchScore": "NaN", 
        "haveDeliver": false, 
        "positionType": "\u89c6\u89c9\u8bbe\u8ba1", 
        "positionAdvantage": "\u4e13\u6ce8\u4e13\u4e1a\u7684\u56e2\u961f\uff0c\u771f\u8bda\u900f\u660e\u7684\u5de5\u4f5c\u6c1b\u56f4\u3002", 
        "adjustScore": 0
      }, 
      {
        "orderBy": 165, 
        "leaderName": "\u6b66\u5fd7\u8c6a", 
        "calcScore": false, 
        "companySize": "\u5c11\u4e8e15\u4eba", 
        "countAdjusted": false, 
        "workYear": "\u4e0d\u9650", 
        "education": "\u5b66\u5386\u4e0d\u9650", 
        "financeStage": "\u521d\u521b\u578b(\u5929\u4f7f\u8f6e)", 
        "city": "\u6210\u90fd", 
        "companyLogo": "image1/M00/39/DB/Cgo8PFWrqFuAav0aAAJewXUhcp8419.JPG", 
        "createTimeSort": 1438398444000, 
        "companyId": 48028, 
        "industryField": "\u79fb\u52a8\u4e92\u8054\u7f51", 
        "companyLabelList": [
          "\u8282\u65e5\u793c\u7269", 
          "\u80a1\u7968\u671f\u6743", 
          "\u5e26\u85aa\u5e74\u5047", 
          "\u6241\u5e73\u7ba1\u7406"
        ], 
        "score": 0, 
        "adWord": 0, 
        "formatCreateTime": "11:07\u53d1\u5e03", 
        "showOrder": 0, 
        "salary": "6k-10k", 
        "positionName": "Android", 
        "companyName": "\u805a\u5ba0\u7231", 
        "jobNature": "\u5168\u804c", 
        "positonTypesMap": null, 
        "totalCount": 273353, 
        "positionFirstType": "\u6280\u672f", 
        "relScore": 0, 
        "createTime": "2015-08-01 11:07:24.0", 
        "positionId": 906866, 
        "randomScore": 0, 
        "companyShortName": "\u6210\u90fd\u805a\u5ba0\u7231\u79d1\u6280\u6709\u9650\u516c\u53f8", 
        "searchScore": "NaN", 
        "haveDeliver": false, 
        "positionType": "\u79fb\u52a8\u5f00\u53d1", 
        "positionAdvantage": "\u671f\u6743\u4fdd\u5e95\uff0c\u7ed3\u679c\u4e3a\u5bfc\u5411\uff0c\u6241\u5e73\u5316\u7ba1\u7406\uff0c\u7f8e\u5973\u591a", 
        "adjustScore": 0
      }, 
      {
        "orderBy": 225, 
        "leaderName": "\u5218\u9896\u535a", 
        "calcScore": false, 
        "companySize": "50-150\u4eba", 
        "countAdjusted": false, 
        "workYear": "1-3\u5e74", 
        "education": "\u672c\u79d1", 
        "financeStage": "\u6210\u957f\u578b(\u4e0d\u9700\u8981\u878d\u8d44)", 
        "city": "\u5317\u4eac", 
        "companyLogo": "image1/M00/15/5F/Cgo8PFUKWS-AX_i9AAAzuotizOM181.png", 
        "createTimeSort": 1438398394000, 
        "companyId": 50604, 
        "industryField": "\u786c\u4ef6", 
        "companyLabelList": [
          "\u5e74\u5e95\u53cc\u85aa", 
          "\u8282\u65e5\u793c\u7269", 
          "\u6280\u80fd\u57f9\u8bad", 
          "\u5e74\u5ea6\u65c5\u6e38"
        ], 
        "score": 0, 
        "adWord": 0, 
        "formatCreateTime": "11:06\u53d1\u5e03", 
        "showOrder": 1432694930152, 
        "salary": "15k-25k", 
        "positionName": "PHP\u5de5\u7a0b\u5e08", 
        "companyName": "\u841d\u535c\u79d1\u6280", 
        "jobNature": "\u5168\u804c", 
        "positonTypesMap": null, 
        "totalCount": 273353, 
        "positionFirstType": "\u6280\u672f", 
        "relScore": 0, 
        "createTime": "2015-08-01 11:06:34.0", 
        "positionId": 421354, 
        "randomScore": 0, 
        "companyShortName": "\u5317\u4eac\u5c45\u5b89\u4e09\u516d\u4e94\u79d1\u6280\u6709\u9650\u516c\u53f8", 
        "searchScore": "NaN", 
        "haveDeliver": false, 
        "positionType": "\u540e\u7aef\u5f00\u53d1", 
        "positionAdvantage": "\u671f\u6743\u5956\u52b1\uff0c\u521b\u4e1a\u6c1b\u56f4\uff0c\u7f8e\u5973\u591a\uff0c\u5f39\u6027\u4e0a\u73ed", 
        "adjustScore": 0
      }, 
      {
        "orderBy": 190, 
        "leaderName": "\u6682\u6ca1\u6709\u586b\u5199", 
        "calcScore": false, 
        "companySize": "50-150\u4eba", 
        "countAdjusted": false, 
        "workYear": "\u4e0d\u9650", 
        "education": "\u5b66\u5386\u4e0d\u9650", 
        "financeStage": "\u6210\u719f\u578b(C\u8f6e)", 
        "city": "\u5317\u4eac", 
        "companyLogo": "image1/M00/19/65/Cgo8PFUY8JaAHjM5AAC78IftixU362.jpg", 
        "createTimeSort": 1438398385000, 
        "companyId": 60503, 
        "industryField": "\u79fb\u52a8\u4e92\u8054\u7f51 \u00b7 \u6e38\u620f", 
        "companyLabelList": [
          "\u6280\u80fd\u57f9\u8bad", 
          "\u4e13\u9879\u5956\u91d1", 
          "\u80a1\u7968\u671f\u6743", 
          "\u7ee9\u6548\u5956\u91d1"
        ], 
        "score": 0, 
        "adWord": 0, 
        "formatCreateTime": "11:06\u53d1\u5e03", 
        "showOrder": 1433138205692, 
        "salary": "4k-8k", 
        "positionName": "\u6e38\u620f\u7cfb\u7edf\u7b56\u5212", 
        "companyName": "\u5317\u4eac\u5999\u8da3\u6a2a\u751f\u7f51\u7edc\u79d1\u6280\u6709\u9650\u516c\u53f8", 
        "jobNature": "\u5168\u804c", 
        "positonTypesMap": null, 
        "totalCount": 273353, 
        "positionFirstType": "\u4ea7\u54c1", 
        "relScore": 0, 
        "createTime": "2015-08-01 11:06:25.0", 
        "positionId": 541173, 
        "randomScore": 0, 
        "companyShortName": "\u5317\u4eac\u5999\u8da3\u6a2a\u751f\u7f51\u7edc\u79d1\u6280\u6709\u9650\u516c\u53f8", 
        "searchScore": "NaN", 
        "haveDeliver": false, 
        "positionType": "\u4ea7\u54c1\u8bbe\u8ba1\u5e08", 
        "positionAdvantage": "\u53d1\u5c55\u7a7a\u95f4\u5927\uff0c\u953b\u70bc\u673a\u4f1a\u591a\uff0c\u5de5\u4f5c\u6c1b\u56f4\u597d", 
        "adjustScore": 0
      }, 
      {
        "orderBy": 190, 
        "leaderName": "\u6682\u6ca1\u6709\u586b\u5199", 
        "calcScore": false, 
        "companySize": "50-150\u4eba", 
        "countAdjusted": false, 
        "workYear": "\u4e0d\u9650", 
        "education": "\u5b66\u5386\u4e0d\u9650", 
        "financeStage": "\u6210\u719f\u578b(C\u8f6e)", 
        "city": "\u5317\u4eac", 
        "companyLogo": "image1/M00/19/65/Cgo8PFUY8JaAHjM5AAC78IftixU362.jpg", 
        "createTimeSort": 1438398384000, 
        "companyId": 60503, 
        "industryField": "\u79fb\u52a8\u4e92\u8054\u7f51 \u00b7 \u6e38\u620f", 
        "companyLabelList": [
          "\u6280\u80fd\u57f9\u8bad", 
          "\u4e13\u9879\u5956\u91d1", 
          "\u80a1\u7968\u671f\u6743", 
          "\u7ee9\u6548\u5956\u91d1"
        ], 
        "score": 0, 
        "adWord": 0, 
        "formatCreateTime": "11:06\u53d1\u5e03", 
        "showOrder": 1433138204568, 
        "salary": "4k-8k", 
        "positionName": "\u6e38\u620f\u6570\u503c\u7b56\u5212", 
        "companyName": "\u5317\u4eac\u5999\u8da3\u6a2a\u751f\u7f51\u7edc\u79d1\u6280\u6709\u9650\u516c\u53f8", 
        "jobNature": "\u5168\u804c", 
        "positonTypesMap": null, 
        "totalCount": 273353, 
        "positionFirstType": "\u8bbe\u8ba1", 
        "relScore": 0, 
        "createTime": "2015-08-01 11:06:24.0", 
        "positionId": 541146, 
        "randomScore": 0, 
        "companyShortName": "\u5317\u4eac\u5999\u8da3\u6a2a\u751f\u7f51\u7edc\u79d1\u6280\u6709\u9650\u516c\u53f8", 
        "searchScore": "NaN", 
        "haveDeliver": false, 
        "positionType": "\u7528\u6237\u7814\u7a76", 
        "positionAdvantage": "\u53d1\u5c55\u7a7a\u95f4\u5927\uff0c\u953b\u70bc\u673a\u4f1a\u591a\uff0c\u5de5\u4f5c\u6c1b\u56f4\u597d", 
        "adjustScore": 0
      }, 
      {
        "orderBy": 200, 
        "leaderName": "\u6682\u6ca1\u6709\u586b\u5199", 
        "calcScore": false, 
        "companySize": "2000\u4eba\u4ee5\u4e0a", 
        "countAdjusted": false, 
        "workYear": "1-3\u5e74", 
        "education": "\u5b66\u5386\u4e0d\u9650", 
        "financeStage": "\u6210\u719f\u578b(\u4e0d\u9700\u8981\u878d\u8d44)", 
        "city": "\u5317\u4eac", 
        "companyLogo": "image1/M00/35/7E/Cgo8PFWbxVOAWbfuAAA3M4GGCzc342.png?cc=0.888318947982043", 
        "createTimeSort": 1438398366000, 
        "companyId": 81484, 
        "industryField": "\u79fb\u52a8\u4e92\u8054\u7f51 \u00b7 \u7535\u5b50\u5546\u52a1", 
        "companyLabelList": [
          "\u6280\u80fd\u57f9\u8bad", 
          "\u4e13\u9879\u5956\u91d1", 
          "\u5e26\u85aa\u5e74\u5047", 
          "\u7ee9\u6548\u5956\u91d1"
        ], 
        "score": 0, 
        "adWord": 0, 
        "formatCreateTime": "11:06\u53d1\u5e03", 
        "showOrder": 0, 
        "salary": "6k-8k", 
        "positionName": "\u524d\u7aef\u5f00\u53d1", 
        "companyName": "\u6613\u601d\u535a\u8f6f\u4ef6", 
        "jobNature": "\u5168\u804c", 
        "positonTypesMap": null, 
        "totalCount": 273353, 
        "positionFirstType": "\u6280\u672f", 
        "relScore": 0, 
        "createTime": "2015-08-01 11:06:06.0", 
        "positionId": 895513, 
        "randomScore": 0, 
        "companyShortName": "\u5317\u4eac\u6613\u601d\u535a\u8f6f\u4ef6\u6709\u9650\u516c\u53f8", 
        "searchScore": "NaN", 
        "haveDeliver": false, 
        "positionType": "\u524d\u7aef\u5f00\u53d1", 
        "positionAdvantage": "\u4e94\u9669\u4e00\u91d1\u3002\u5927\u5e73\u53f0\uff0c\u529e\u516c\u73af\u5883\u8212\u9002", 
        "adjustScore": 0
      }, 
      {
        "orderBy": 225, 
        "leaderName": "\u98ce\u6c60", 
        "calcScore": false, 
        "companySize": "50-150\u4eba", 
        "countAdjusted": false, 
        "workYear": "1-3\u5e74", 
        "education": "\u5927\u4e13", 
        "financeStage": "\u6210\u957f\u578b(A\u8f6e)", 
        "city": "\u4e0a\u6d77", 
        "companyLogo": "image1/M00/2B/D8/CgYXBlVxhcuAP-pVAAAcpFTLa7s340.png", 
        "createTimeSort": 1438398359000, 
        "companyId": 44452, 
        "industryField": "O2O", 
        "companyLabelList": [
          "\u8282\u65e5\u793c\u7269", 
          "\u6280\u80fd\u57f9\u8bad", 
          "\u80a1\u7968\u671f\u6743", 
          "\u4e13\u9879\u5956\u91d1"
        ], 
        "score": 0, 
        "adWord": 0, 
        "formatCreateTime": "11:05\u53d1\u5e03", 
        "showOrder": 0, 
        "salary": "4k-6k", 
        "positionName": "\u7ebf\u4e0b\u8fd0\u8425\u4e3b\u7ba1", 
        "companyName": "\u4e0a\u95e8\u5e2e", 
        "jobNature": "\u5168\u804c", 
        "positonTypesMap": null, 
        "totalCount": 273353, 
        "positionFirstType": "\u8fd0\u8425", 
        "relScore": 0, 
        "createTime": "2015-08-01 11:05:59.0", 
        "positionId": 942410, 
        "randomScore": 0, 
        "companyShortName": "\u4e0a\u95e8\u5e2e\u7535\u5b50\u5546\u52a1\uff08\u5317\u4eac\uff09\u6709\u9650\u516c\u53f8", 
        "searchScore": "NaN", 
        "haveDeliver": false, 
        "positionType": "\u8fd0\u8425", 
        "positionAdvantage": "\u798f\u5229\u597d+\u5bb6\u6c1b\u56f4+\u9760\u8c31\u9879\u76ee+\u4eba\u6027\u5316\u7ba1\u7406", 
        "adjustScore": 0
      }, 
      {
        "orderBy": 225, 
        "leaderName": "\u6682\u6ca1\u6709\u586b\u5199", 
        "calcScore": false, 
        "companySize": "15-50\u4eba", 
        "countAdjusted": false, 
        "workYear": "1-3\u5e74", 
        "education": "\u5b66\u5386\u4e0d\u9650", 
        "financeStage": "\u6210\u957f\u578b(A\u8f6e)", 
        "city": "\u5e7f\u5dde", 
        "companyLogo": "image1/M00/2E/EA/CgYXBlV_5TSAZKqkAABWnZvvVuE110.jpg", 
        "createTimeSort": 1438398349000, 
        "companyId": 44974, 
        "industryField": "\u79fb\u52a8\u4e92\u8054\u7f51 \u00b7 \u6e38\u620f", 
        "companyLabelList": [
          "\u6280\u80fd\u57f9\u8bad", 
          "\u80a1\u7968\u671f\u6743", 
          "\u5e26\u85aa\u5e74\u5047", 
          "\u7ee9\u6548\u5956\u91d1"
        ], 
        "score": 0, 
        "adWord": 0, 
        "formatCreateTime": "11:05\u53d1\u5e03", 
        "showOrder": 0, 
        "salary": "8k-12k", 
        "positionName": "PHP\u5de5\u7a0b\u5e08", 
        "companyName": "\u4fe1\u6b65\u6e38\u620f", 
        "jobNature": "\u5168\u804c", 
        "positonTypesMap": null, 
        "totalCount": 273353, 
        "positionFirstType": "\u6280\u672f", 
        "relScore": 0, 
        "createTime": "2015-08-01 11:05:49.0", 
        "positionId": 799584, 
        "randomScore": 0, 
        "companyShortName": "\u5e7f\u5dde\u4fe1\u6b65\u7f51\u7edc\u79d1\u6280\u6709\u9650\u516c\u53f8", 
        "searchScore": "NaN", 
        "haveDeliver": false, 
        "positionType": "\u540e\u7aef\u5f00\u53d1", 
        "positionAdvantage": "\u804c\u4e1a\u53d1\u5c55\u5e73\u53f0\u597d\uff0c\u85aa\u916c\u5f85\u9047\u4f18\u8d8a", 
        "adjustScore": 0
      }, 
      {
        "orderBy": 200, 
        "leaderName": "\u6682\u6ca1\u6709\u586b\u5199", 
        "calcScore": false, 
        "companySize": "2000\u4eba\u4ee5\u4e0a", 
        "countAdjusted": false, 
        "workYear": "1-3\u5e74", 
        "education": "\u672c\u79d1", 
        "financeStage": "\u6210\u719f\u578b(D\u8f6e\u53ca\u4ee5\u4e0a)", 
        "city": "\u6b66\u6c49", 
        "companyLogo": "image1/M00/34/16/CgYXBlWV9nCAVaZ8AAAR-dQU72g178.jpg?cc=0.5438111615484077", 
        "createTimeSort": 1438398345000, 
        "companyId": 80666, 
        "industryField": "\u79fb\u52a8\u4e92\u8054\u7f51 \u00b7 \u6559\u80b2", 
        "companyLabelList": [
          "\u8282\u65e5\u793c\u7269", 
          "\u5e74\u5e95\u53cc\u85aa", 
          "\u514d\u8d39\u73ed\u8f66", 
          "\u5e26\u85aa\u5e74\u5047"
        ], 
        "score": 0, 
        "adWord": 0, 
        "formatCreateTime": "11:05\u53d1\u5e03", 
        "showOrder": 0, 
        "salary": "3k-6k", 
        "positionName": "\u5ba2\u670d\u4e13\u5458", 
        "companyName": "\u6b66\u6c49\u8f6f\u7f51\u79d1\u6280", 
        "jobNature": "\u5168\u804c", 
        "positonTypesMap": null, 
        "totalCount": 273353, 
        "positionFirstType": "\u8fd0\u8425", 
        "relScore": 0, 
        "createTime": "2015-08-01 11:05:45.0", 
        "positionId": 853053, 
        "randomScore": 0, 
        "companyShortName": "\u6b66\u6c49\u8f6f\u7f51\u79d1\u6280\u6709\u9650\u516c\u53f8", 
        "searchScore": "NaN", 
        "haveDeliver": false, 
        "positionType": "\u5ba2\u670d", 
        "positionAdvantage": "\u73af\u5883\u8212\u9002\uff0c\u6c1b\u56f4\u8f7b\u677e\uff0c\u5f39\u6027\u4f11\u606f\uff0c\u5e74\u5047\u957f", 
        "adjustScore": 0
      }, 
      {
        "orderBy": 200, 
        "leaderName": "\u6682\u6ca1\u6709\u586b\u5199", 
        "calcScore": false, 
        "companySize": "2000\u4eba\u4ee5\u4e0a", 
        "countAdjusted": false, 
        "workYear": "1-3\u5e74", 
        "education": "\u672c\u79d1", 
        "financeStage": "\u6210\u719f\u578b(D\u8f6e\u53ca\u4ee5\u4e0a)", 
        "city": "\u6b66\u6c49", 
        "companyLogo": "image1/M00/34/16/CgYXBlWV9nCAVaZ8AAAR-dQU72g178.jpg?cc=0.5438111615484077", 
        "createTimeSort": 1438398337000, 
        "companyId": 80666, 
        "industryField": "\u79fb\u52a8\u4e92\u8054\u7f51 \u00b7 \u6559\u80b2", 
        "companyLabelList": [
          "\u8282\u65e5\u793c\u7269", 
          "\u5e74\u5e95\u53cc\u85aa", 
          "\u514d\u8d39\u73ed\u8f66", 
          "\u5e26\u85aa\u5e74\u5047"
        ], 
        "score": 0, 
        "adWord": 0, 
        "formatCreateTime": "11:05\u53d1\u5e03", 
        "showOrder": 0, 
        "salary": "3k-6k", 
        "positionName": "\u7ade\u4ef7\u63a8\u5e7f\u4e13\u5458", 
        "companyName": "\u6b66\u6c49\u8f6f\u7f51\u79d1\u6280", 
        "jobNature": "\u5168\u804c", 
        "positonTypesMap": null, 
        "totalCount": 273353, 
        "positionFirstType": "\u8fd0\u8425", 
        "relScore": 0, 
        "createTime": "2015-08-01 11:05:37.0", 
        "positionId": 907609, 
        "randomScore": 0, 
        "companyShortName": "\u6b66\u6c49\u8f6f\u7f51\u79d1\u6280\u6709\u9650\u516c\u53f8", 
        "searchScore": "NaN", 
        "haveDeliver": false, 
        "positionType": "\u8fd0\u8425", 
        "positionAdvantage": "\u73af\u5883\u8212\u9002\uff0c\u6c1b\u56f4\u8f7b\u677e\uff0c\u5f39\u6027\u4f11\u606f\uff0c\u5e74\u5047\u957f", 
        "adjustScore": 0
      }
    ], 
    "totalPageCount": 30, 
    "hasPreviousPage": false
  }, 
  "requestId": null, 
  "msg": null
}